C:\Users\lucas\OneDrive\Documentos\NetBeansProjects\servlet-jsp\src\main\java\todo\controllers\QuestaoRestController.java
C:\Users\lucas\OneDrive\Documentos\NetBeansProjects\servlet-jsp\src\main\java\todo\controllers\UsuarioRestController.java
C:\Users\lucas\OneDrive\Documentos\NetBeansProjects\servlet-jsp\src\main\java\todo\DAO\ProvaDAO.java
C:\Users\lucas\OneDrive\Documentos\NetBeansProjects\servlet-jsp\src\main\java\todo\controllers\TipoQuestaoRestController.java
C:\Users\lucas\OneDrive\Documentos\NetBeansProjects\servlet-jsp\src\main\java\todo\controllers\TipoUsuarioRestController.java
C:\Users\lucas\OneDrive\Documentos\NetBeansProjects\servlet-jsp\src\main\java\Servlets\LoginServlet.java
C:\Users\lucas\OneDrive\Documentos\NetBeansProjects\servlet-jsp\src\main\java\todo\model\ProvaQuestao.java
C:\Users\lucas\OneDrive\Documentos\NetBeansProjects\servlet-jsp\src\main\java\todo\controllers\LoginController.java
C:\Users\lucas\OneDrive\Documentos\NetBeansProjects\servlet-jsp\src\main\java\todo\controllers\ResultadoRestController.java
C:\Users\lucas\OneDrive\Documentos\NetBeansProjects\servlet-jsp\src\main\java\todo\DAO\UsuarioDAO.java
C:\Users\lucas\OneDrive\Documentos\NetBeansProjects\servlet-jsp\src\main\java\todo\model\Usuario.java
C:\Users\lucas\OneDrive\Documentos\NetBeansProjects\servlet-jsp\src\main\java\todo\model\Prova.java
C:\Users\lucas\OneDrive\Documentos\NetBeansProjects\servlet-jsp\src\main\java\todo\DAO\ResultadoDAO.java
C:\Users\lucas\OneDrive\Documentos\NetBeansProjects\servlet-jsp\src\main\java\todo\DAO\TipoQuestaoDAO.java
C:\Users\lucas\OneDrive\Documentos\NetBeansProjects\servlet-jsp\src\main\java\todo\model\TipoUsuario.java
C:\Users\lucas\OneDrive\Documentos\NetBeansProjects\servlet-jsp\src\main\java\todo\model\Questao.java
C:\Users\lucas\OneDrive\Documentos\NetBeansProjects\servlet-jsp\src\main\java\todo\controllers\IndexController.java
C:\Users\lucas\OneDrive\Documentos\NetBeansProjects\servlet-jsp\src\main\java\todo\DAO\QuestaoDAO.java
C:\Users\lucas\OneDrive\Documentos\NetBeansProjects\servlet-jsp\src\main\java\todo\DAO\TipoUsuarioDAO.java
C:\Users\lucas\OneDrive\Documentos\NetBeansProjects\servlet-jsp\src\main\java\todo\controllers\ProvaQuestaoRestController.java
C:\Users\lucas\OneDrive\Documentos\NetBeansProjects\servlet-jsp\src\main\java\todo\model\TipoQuestao.java
C:\Users\lucas\OneDrive\Documentos\NetBeansProjects\servlet-jsp\src\main\java\todo\controllers\ProvaRestController.java
C:\Users\lucas\OneDrive\Documentos\NetBeansProjects\servlet-jsp\src\main\java\todo\model\Resultado.java
C:\Users\lucas\OneDrive\Documentos\NetBeansProjects\servlet-jsp\src\main\java\todo\DAO\ProvaQuestaoDAO.java
